generic/001
generic/002
generic/005
generic/006
generic/010
generic/014
generic/023
generic/028
generic/036
generic/084
generic/086
generic/098
generic/100
generic/109
generic/123
generic/124
generic/129
generic/132
generic/135
generic/141
generic/169
generic/198
generic/207
generic/208
generic/210
generic/211
generic/212
generic/214
generic/221
generic/245
generic/246
generic/248
generic/249
generic/257
generic/308
generic/309
generic/310
generic/339
generic/340
generic/344
generic/345
generic/346
generic/354
generic/360
generic/394
generic/406
generic/412
generic/420
generic/428
generic/432
generic/433
generic/437
generic/439
generic/443
generic/446
generic/451
generic/452
generic/460
generic/464
generic/524
generic/532
generic/565
generic/567
generic/590
generic/591
generic/609
